mode: set
C:\Projects\Go\Homework\main.go:15.13,21.2 3 0
C:\Projects\Go\Homework\main.go:37.61,43.16 4 1
C:\Projects\Go\Homework\main.go:51.2,51.47 1 1
C:\Projects\Go\Homework\main.go:59.2,60.16 2 1
C:\Projects\Go\Homework\main.go:77.2,88.16 4 1
C:\Projects\Go\Homework\main.go:95.2,95.21 1 1
C:\Projects\Go\Homework\main.go:43.16,48.3 4 1
C:\Projects\Go\Homework\main.go:51.47,56.3 4 1
C:\Projects\Go\Homework\main.go:60.16,61.47 1 1
C:\Projects\Go\Homework\main.go:61.47,65.4 3 1
C:\Projects\Go\Homework\main.go:65.9,65.59 1 1
C:\Projects\Go\Homework\main.go:65.59,69.4 3 1
C:\Projects\Go\Homework\main.go:69.9,73.4 3 0
C:\Projects\Go\Homework\main.go:88.16,92.3 3 0
C:\Projects\Go\Homework\main.go:99.68,106.31 4 1
C:\Projects\Go\Homework\main.go:112.2,113.27 2 1
C:\Projects\Go\Homework\main.go:117.2,118.20 2 1
C:\Projects\Go\Homework\main.go:131.2,131.18 1 1
C:\Projects\Go\Homework\main.go:135.2,135.15 1 1
C:\Projects\Go\Homework\main.go:106.31,110.3 3 1
C:\Projects\Go\Homework\main.go:113.27,115.3 1 1
C:\Projects\Go\Homework\main.go:118.20,120.10 2 1
C:\Projects\Go\Homework\main.go:127.3,128.120 2 1
C:\Projects\Go\Homework\main.go:120.10,124.12 3 1
C:\Projects\Go\Homework\main.go:131.18,133.3 1 1
C:\Projects\Go\Homework\main.go:141.54,143.4 1 1
C:\Projects\Go\Homework\main.go:148.77,151.16 2 1
C:\Projects\Go\Homework\main.go:155.2,156.11 2 1
C:\Projects\Go\Homework\main.go:151.16,153.3 1 0
C:\Projects\Go\Homework\main.go:160.64,165.16 3 1
C:\Projects\Go\Homework\main.go:170.2,171.16 2 1
C:\Projects\Go\Homework\main.go:176.2,179.16 3 1
C:\Projects\Go\Homework\main.go:184.2,189.21 3 1
C:\Projects\Go\Homework\main.go:165.16,167.3 1 0
C:\Projects\Go\Homework\main.go:171.16,173.3 1 1
C:\Projects\Go\Homework\main.go:179.16,181.3 1 0
